module github.com/zblach/fsmgen

go 1.20

require (
	github.com/awalterschulze/gographviz v2.0.3+incompatible
	github.com/iancoleman/strcase v0.2.0
	github.com/stretchr/testify v1.8.2
	github.com/urfave/cli/v2 v2.25.1
)

require (
	github.com/cpuguy83/go-md2man/v2 v2.0.2 // indirect
	github.com/davecgh/go-spew v1.1.1 // indirect
	github.com/pmezard/go-difflib v1.0.0 // indirect
	github.com/russross/blackfriday/v2 v2.1.0 // indirect
	github.com/xrash/smetrics v0.0.0-20201216005158-039620a65673 // indirect
	gopkg.in/yaml.v3 v3.0.1 // indirect
)

replace github.com/zblach/fsmgen => ./v2/
