digraph shitpost {
	rankdir=LR;
	size="8,5";
	p0->p1[ label="a" ];
	p0->p2[ label="a" ];
	p1->p1[ label="a" ];
	p1->p2[ label="b" ];
	p1->p3[ label="a" ];
	p1->p3[ label="b" ];
	p2->p0[ label="a" ];
	p2->p3[ label="a" ];
	p2->p4[ label="b" ];
	p3->p3[ label="b" ];
	p3->p4[ label="a" ];
	p4->p5[ label="b" ];
	p5->p2[ label="b" ];
	p5->p3[ label="b" ];
	p5->p5[ label="a" ];
	p0 [ shape=circle ];
	p1 [ shape=circle ];
	p2 [ shape=circle ];
	p3 [ shape=doublecircle ];
	p4 [ shape=circle ];
	p5 [ shape=circle ];

}
