digraph Engine {
	start->paused;
	start->running;
	running->paused;
	running->finished;
	running->running;
	paused->running;
	paused->finished;
	paused->killed;
	finished->killed;
	finished;
	killed;
	paused;
	running;
	start [ shape=doublecircle ];

}
