digraph finite_state_machine {
	rankdir=LR;
	size="8,5";
	LR_0->LR_2[ label="SS(B)" ];
	LR_0->LR_1[ label="SS(S)" ];
	LR_1->LR_3[ label="S($end)" ];
	LR_2->LR_6[ label="SS(b)" ];
	LR_2->LR_5[ label="SS(a)" ];
	LR_2->LR_4[ label="S(A)" ];
	LR_5->LR_7[ label="S(b)" ];
	LR_5->LR_5[ label="S(a)" ];
	LR_6->LR_6[ label="S(b)" ];
	LR_6->LR_5[ label="S(a)" ];
	LR_7->LR_8[ label="S(b)" ];
	LR_7->LR_5[ label="S(a)" ];
	LR_8->LR_6[ label="S(b)" ];
	LR_8->LR_5[ label="S(a)" ];
	LR_0->_err;
	LR_3->_err;
	LR_4->_err;
	LR_8->_err;
	LR_2->_err;
	LR_1->_err;
	LR_6->_err;
	LR_5->_err;
	LR_7->_err;
	_err->_err;
	LR_0 [ shape=doublecircle ];
	LR_1 [ shape=circle ];
	LR_2 [ shape=circle ];
	LR_3 [ shape=doublecircle ];
	LR_4 [ shape=doublecircle ];
	LR_5 [ shape=circle ];
	LR_6 [ shape=circle ];
	LR_7 [ shape=circle ];
	LR_8 [ shape=doublecircle ];
	_err;

}
