digraph Disconnected {
	A->B;
	B->C;
	C->A;
	D->E;
	E->F;
	F->D;
	A->_err;
	_err->A;
	B->_err;
	_err->B;
	C->_err;
	_err->C;
	D->_err;
	_err->D;
	E->_err;
	_err->E;
	F->_err;
	_err->F;
	_err->_err;
	subgraph blue {
	D;
	E;
	F;

}
;
	subgraph red {
	A;
	B;
	C;

}
;
	_err;

}
