digraph Engine {
	start->paused;
	start->running;
	running->paused;
	running->finished;
	running->running;
	paused->running;
	paused->finished;
	paused->killed;
	finished->killed;
	start->_err;
	paused->_err;
	running->_err;
	finished->_err;
	killed->_err;
	_err->_err;
	_err;
	finished;
	killed;
	paused;
	running;
	start [ shape=doublecircle ];

}
