<?xml version="1.0" encoding="UTF-8" standalone="no"?>
<!DOCTYPE svg PUBLIC "-//W3C//DTD SVG 1.1//EN" "http://www.w3.org/Graphics/SVG/1.1/DTD/svg11.dtd">
<!-- Generated by graphviz version 2.40.1 (20161225.0304)
 -->
<!-- Title: prof Pages: 1 -->
<svg width="2070pt" height="620pt" viewBox="0.00 0.00 2069.52 620.00" xmlns="http://www.w3.org/2000/svg" xmlns:xlink="http://www.w3.org/1999/xlink">
<g id="graph0" class="graph" transform="scale(1 1) rotate(0) translate(4 616)">
<title>prof</title>
<polygon fill="#ffffff" stroke="transparent" points="-4,4 -4,-616 2065.5235,-616 2065.5235,4 -4,4"/>
<!-- start -->
<g id="node1" class="node">
<title>start</title>
<ellipse fill="#d3d3d3" stroke="#000000" cx="1496.6342" cy="-594" rx="27.8228" ry="18"/>
<text text-anchor="middle" x="1496.6342" y="-589.8" font-family="Times,serif" font-size="14.00" fill="#000000">start</text>
</g>
<!-- main -->
<g id="node2" class="node">
<title>main</title>
<ellipse fill="#ccd1ff" stroke="#ccd1ff" cx="994.6342" cy="-450" rx="30.1958" ry="18"/>
<text text-anchor="middle" x="994.6342" y="-445.8" font-family="Times,serif" font-size="14.00" fill="#000000">main</text>
</g>
<!-- start&#45;&gt;main -->
<g id="edge1" class="edge">
<title>start-&gt;main</title>
<path fill="none" stroke="#fe0300" d="M1471.0498,-586.661C1388.4581,-562.9694 1128.6835,-488.4524 1031.6652,-460.6224"/>
<polygon fill="#fe0300" stroke="#fe0300" points="1032.569,-457.2406 1021.9916,-457.8475 1030.6388,-463.9693 1032.569,-457.2406"/>
</g>
<!-- on_exit -->
<g id="node3" class="node">
<title>on_exit</title>
<ellipse fill="#ccd1ff" stroke="#ccd1ff" cx="1516.6342" cy="-522" rx="40.0089" ry="18"/>
<text text-anchor="middle" x="1516.6342" y="-517.8" font-family="Times,serif" font-size="14.00" fill="#000000">on_exit</text>
</g>
<!-- start&#45;&gt;on_exit -->
<g id="edge2" class="edge">
<title>start-&gt;on_exit</title>
<path fill="none" stroke="#3542b2" d="M1501.578,-576.2022C1503.773,-568.3005 1506.4089,-558.811 1508.8576,-549.9959"/>
<polygon fill="#3542b2" stroke="#3542b2" points="1512.3042,-550.6651 1511.6084,-540.0931 1505.5595,-548.7915 1512.3042,-550.6651"/>
</g>
<!-- sort -->
<g id="node4" class="node">
<title>sort</title>
<ellipse fill="#80ffb8" stroke="#80ffb8" cx="348.6342" cy="-378" rx="27" ry="18"/>
<text text-anchor="middle" x="348.6342" y="-373.8" font-family="Times,serif" font-size="14.00" fill="#000000">sort</text>
</g>
<!-- main&#45;&gt;sort -->
<g id="edge3" class="edge">
<title>main-&gt;sort</title>
<path fill="none" stroke="#22d532" d="M964.136,-448.5856C857.2813,-443.4268 500.3269,-424.4243 389.6342,-396 386.3965,-395.1686 383.0897,-394.1087 379.8284,-392.9204"/>
<polygon fill="#22d532" stroke="#22d532" points="380.8785,-389.5699 370.2954,-389.0709 378.2574,-396.0607 380.8785,-389.5699"/>
</g>
<!-- merge -->
<g id="node5" class="node">
<title>merge</title>
<ellipse fill="#bdd6ff" stroke="#bdd6ff" cx="466.6342" cy="-378" rx="35.3315" ry="18"/>
<text text-anchor="middle" x="466.6342" y="-373.8" font-family="Times,serif" font-size="14.00" fill="#000000">merge</text>
</g>
<!-- main&#45;&gt;merge -->
<g id="edge4" class="edge">
<title>main-&gt;merge</title>
<path fill="none" stroke="#2eb4c2" d="M964.7338,-445.9227C876.2728,-433.8598 615.5024,-398.3002 510.8425,-384.0284"/>
<polygon fill="#2eb4c2" stroke="#2eb4c2" points="511.2997,-380.5584 500.9185,-382.6751 510.3539,-387.4943 511.2997,-380.5584"/>
</g>
<!-- term -->
<g id="node6" class="node">
<title>term</title>
<ellipse fill="#ccd1ff" stroke="#ccd1ff" cx="845.6342" cy="-378" rx="28.9696" ry="18"/>
<text text-anchor="middle" x="845.6342" y="-373.8" font-family="Times,serif" font-size="14.00" fill="#000000">term</text>
</g>
<!-- main&#45;&gt;term -->
<g id="edge5" class="edge">
<title>main-&gt;term</title>
<path fill="none" stroke="#3544b3" d="M971.0247,-438.5914C945.811,-426.4076 905.7003,-407.0252 877.6537,-393.4725"/>
<polygon fill="#3544b3" stroke="#3544b3" points="879.1704,-390.3182 868.6437,-389.1187 876.1247,-396.6209 879.1704,-390.3182"/>
</g>
<!-- signal -->
<g id="node7" class="node">
<title>signal</title>
<ellipse fill="#cad1ff" stroke="#cad1ff" cx="1183.6342" cy="-306" rx="34.2065" ry="18"/>
<text text-anchor="middle" x="1183.6342" y="-301.8" font-family="Times,serif" font-size="14.00" fill="#000000">signal</text>
</g>
<!-- main&#45;&gt;signal -->
<g id="edge6" class="edge">
<title>main-&gt;signal</title>
<path fill="none" stroke="#3542b2" d="M1025.0416,-449.2191C1093.9634,-446.7424 1258.722,-436.6096 1292.6342,-396 1302.8898,-383.719 1301.0709,-373.5949 1292.6342,-360 1277.9534,-336.3433 1249.4856,-322.7309 1225.3245,-315.0916"/>
<polygon fill="#3542b2" stroke="#3542b2" points="1226.2105,-311.7042 1215.6304,-312.2635 1224.25,-318.4241 1226.2105,-311.7042"/>
</g>
<!-- sbrk -->
<g id="node8" class="node">
<title>sbrk</title>
<ellipse fill="#cad1ff" stroke="#cad1ff" cx="1683.6342" cy="-90" rx="27.8286" ry="18"/>
<text text-anchor="middle" x="1683.6342" y="-85.8" font-family="Times,serif" font-size="14.00" fill="#000000">sbrk</text>
</g>
<!-- main&#45;&gt;sbrk -->
<g id="edge7" class="edge">
<title>main-&gt;sbrk</title>
<path fill="none" stroke="#3542b2" d="M1025.2907,-449.3457C1143.0566,-446.5584 1562.0489,-434.0244 1606.6342,-396 1689.6003,-325.2427 1690.0995,-179.5226 1686.2156,-118.189"/>
<polygon fill="#3542b2" stroke="#3542b2" points="1689.6974,-117.8101 1685.4855,-108.0885 1682.7156,-118.3148 1689.6974,-117.8101"/>
</g>
<!-- unlink -->
<g id="node9" class="node">
<title>unlink</title>
<ellipse fill="#c5d2ff" stroke="#c5d2ff" cx="843.6342" cy="-306" rx="35.9368" ry="18"/>
<text text-anchor="middle" x="843.6342" y="-301.8" font-family="Times,serif" font-size="14.00" fill="#000000">unlink</text>
</g>
<!-- main&#45;&gt;unlink -->
<g id="edge8" class="edge">
<title>main-&gt;unlink</title>
<path fill="none" stroke="#3542b2" d="M964.2522,-448.3112C902.1639,-444.1589 764.175,-431.1051 735.6342,-396 725.5409,-383.5853 727.2225,-373.6104 735.6342,-360 743.6443,-347.0394 777.3789,-331.3868 805.0417,-320.278"/>
<polygon fill="#3542b2" stroke="#3542b2" points="806.4958,-323.4672 814.5211,-316.5501 803.9339,-316.9528 806.4958,-323.4672"/>
</g>
<!-- newfile -->
<g id="node10" class="node">
<title>newfile</title>
<ellipse fill="#ccd1ff" stroke="#ccd1ff" cx="711.6342" cy="-306" rx="39.9838" ry="18"/>
<text text-anchor="middle" x="711.6342" y="-301.8" font-family="Times,serif" font-size="14.00" fill="#000000">newfile</text>
</g>
<!-- main&#45;&gt;newfile -->
<g id="edge9" class="edge">
<title>main-&gt;newfile</title>
<path fill="none" stroke="#3542b2" d="M964.0083,-448.1526C900.6045,-443.6705 758.1587,-429.9809 725.6342,-396 710.1563,-379.829 707.5151,-354.0228 708.2467,-334.1818"/>
<polygon fill="#3542b2" stroke="#3542b2" points="711.7423,-334.3628 708.9131,-324.1527 704.7577,-333.8986 711.7423,-334.3628"/>
</g>
<!-- fclose -->
<g id="node11" class="node">
<title>fclose</title>
<ellipse fill="#ccd1ff" stroke="#ccd1ff" cx="357.6342" cy="-306" rx="34.1852" ry="18"/>
<text text-anchor="middle" x="357.6342" y="-301.8" font-family="Times,serif" font-size="14.00" fill="#000000">fclose</text>
</g>
<!-- main&#45;&gt;fclose -->
<g id="edge10" class="edge">
<title>main-&gt;fclose</title>
<path fill="none" stroke="#3542b2" d="M964.07,-448.5869C852.3085,-443.2199 469.8725,-423.0292 422.6342,-396 397.8269,-381.8056 379.9493,-353.8573 369.297,-332.8519"/>
<polygon fill="#3542b2" stroke="#3542b2" points="372.4099,-331.2493 364.9122,-323.7637 366.1053,-334.2911 372.4099,-331.2493"/>
</g>
<!-- close -->
<g id="node12" class="node">
<title>close</title>
<ellipse fill="#ccd1ff" stroke="#ccd1ff" cx="616.6342" cy="-234" rx="30.7558" ry="18"/>
<text text-anchor="middle" x="616.6342" y="-229.8" font-family="Times,serif" font-size="14.00" fill="#000000">close</text>
</g>
<!-- main&#45;&gt;close -->
<g id="edge11" class="edge">
<title>main-&gt;close</title>
<path fill="none" stroke="#3542b2" d="M964.3559,-447.4351C899.217,-441.428 748.3014,-424.7389 706.6342,-396 659.7898,-363.6902 634.7141,-298.6961 623.688,-261.604"/>
<polygon fill="#3542b2" stroke="#3542b2" points="627.0406,-260.5975 620.9442,-251.9324 620.3064,-262.508 627.0406,-260.5975"/>
</g>
<!-- brk -->
<g id="node13" class="node">
<title>brk</title>
<ellipse fill="#ccd1ff" stroke="#ccd1ff" cx="771.6342" cy="-378" rx="27" ry="18"/>
<text text-anchor="middle" x="771.6342" y="-373.8" font-family="Times,serif" font-size="14.00" fill="#000000">brk</text>
</g>
<!-- main&#45;&gt;brk -->
<g id="edge12" class="edge">
<title>main-&gt;brk</title>
<path fill="none" stroke="#3542b2" d="M966.2243,-443.5128C929.1092,-434.6514 862.4021,-417.3928 807.6342,-396 805.7792,-395.2754 803.8911,-394.4891 802.0001,-393.6637"/>
<polygon fill="#3542b2" stroke="#3542b2" points="803.2058,-390.3644 792.6629,-389.3169 800.2514,-396.7104 803.2058,-390.3644"/>
</g>
<!-- setbuf -->
<g id="node14" class="node">
<title>setbuf</title>
<ellipse fill="#ccd1ff" stroke="#ccd1ff" cx="34.6342" cy="-306" rx="34.769" ry="18"/>
<text text-anchor="middle" x="34.6342" y="-301.8" font-family="Times,serif" font-size="14.00" fill="#000000">setbuf</text>
</g>
<!-- main&#45;&gt;setbuf -->
<g id="edge13" class="edge">
<title>main-&gt;setbuf</title>
<path fill="none" stroke="#3542b2" d="M964.0071,-448.5297C848.6144,-442.8421 440.1995,-421.3351 312.6342,-396 224.0514,-378.407 124.2307,-341.7587 71.6411,-321.0657"/>
<polygon fill="#3542b2" stroke="#3542b2" points="72.6632,-317.706 62.0772,-317.273 70.0827,-324.213 72.6632,-317.706"/>
</g>
<!-- copyproto -->
<g id="node15" class="node">
<title>copyproto</title>
<ellipse fill="#ccd1ff" stroke="#ccd1ff" cx="942.6342" cy="-378" rx="50.3858" ry="18"/>
<text text-anchor="middle" x="942.6342" y="-373.8" font-family="Times,serif" font-size="14.00" fill="#000000">copyproto</text>
</g>
<!-- main&#45;&gt;copyproto -->
<g id="edge14" class="edge">
<title>main-&gt;copyproto</title>
<path fill="none" stroke="#3542b2" d="M982.5737,-433.3008C976.2619,-424.5614 968.394,-413.6674 961.3144,-403.8649"/>
<polygon fill="#3542b2" stroke="#3542b2" points="964.0472,-401.6708 955.3548,-395.6132 958.3724,-405.7692 964.0472,-401.6708"/>
</g>
<!-- initree -->
<g id="node16" class="node">
<title>initree</title>
<ellipse fill="#ccd1ff" stroke="#ccd1ff" cx="1046.6342" cy="-378" rx="35.9096" ry="18"/>
<text text-anchor="middle" x="1046.6342" y="-373.8" font-family="Times,serif" font-size="14.00" fill="#000000">initree</text>
</g>
<!-- main&#45;&gt;initree -->
<g id="edge15" class="edge">
<title>main-&gt;initree</title>
<path fill="none" stroke="#3542b2" d="M1006.6948,-433.3008C1013.0994,-424.4329 1021.1062,-413.3465 1028.2658,-403.4332"/>
<polygon fill="#3542b2" stroke="#3542b2" points="1031.2604,-405.2647 1034.278,-395.1086 1025.5856,-401.1662 1031.2604,-405.2647"/>
</g>
<!-- safeoutfil -->
<g id="node17" class="node">
<title>safeoutfil</title>
<ellipse fill="#ccd1ff" stroke="#ccd1ff" cx="1147.6342" cy="-378" rx="47.5061" ry="18"/>
<text text-anchor="middle" x="1147.6342" y="-373.8" font-family="Times,serif" font-size="14.00" fill="#000000">safeoutfil</text>
</g>
<!-- main&#45;&gt;safeoutfil -->
<g id="edge16" class="edge">
<title>main-&gt;safeoutfil</title>
<path fill="none" stroke="#3542b2" d="M1018.5405,-438.75C1042.5525,-427.4502 1079.9636,-409.845 1108.3432,-396.4899"/>
<polygon fill="#3542b2" stroke="#3542b2" points="1110.031,-399.5639 1117.5889,-392.139 1107.0504,-393.2301 1110.031,-399.5639"/>
</g>
<!-- getpid -->
<g id="node18" class="node">
<title>getpid</title>
<ellipse fill="#ccd1ff" stroke="#ccd1ff" cx="1248.6342" cy="-378" rx="35.3528" ry="18"/>
<text text-anchor="middle" x="1248.6342" y="-373.8" font-family="Times,serif" font-size="14.00" fill="#000000">getpid</text>
</g>
<!-- main&#45;&gt;getpid -->
<g id="edge17" class="edge">
<title>main-&gt;getpid</title>
<path fill="none" stroke="#3542b2" d="M1023.5257,-443.8861C1064.3482,-434.9515 1141.0289,-417.0784 1204.6342,-396 1207.0335,-395.2049 1209.4884,-394.3424 1211.9513,-393.4401"/>
<polygon fill="#3542b2" stroke="#3542b2" points="1213.3059,-396.6692 1221.3895,-389.8204 1210.7993,-390.1334 1213.3059,-396.6692"/>
</g>
<!-- sprintf -->
<g id="node19" class="node">
<title>sprintf</title>
<ellipse fill="#ccd1ff" stroke="#ccd1ff" cx="1453.6342" cy="-378" rx="36.4936" ry="18"/>
<text text-anchor="middle" x="1453.6342" y="-373.8" font-family="Times,serif" font-size="14.00" fill="#000000">sprintf</text>
</g>
<!-- main&#45;&gt;sprintf -->
<g id="edge18" class="edge">
<title>main-&gt;sprintf</title>
<path fill="none" stroke="#3542b2" d="M1025.002,-448.6438C1094.1434,-444.9946 1268.1828,-432.6278 1408.6342,-396 1411.2905,-395.3073 1414.0007,-394.4988 1416.7078,-393.6152"/>
<polygon fill="#3542b2" stroke="#3542b2" points="1418.1528,-396.8159 1426.396,-390.1601 1415.8014,-390.2226 1418.1528,-396.8159"/>
</g>
<!-- creat -->
<g id="node20" class="node">
<title>creat</title>
<ellipse fill="#ccd1ff" stroke="#ccd1ff" cx="1369.6342" cy="-378" rx="29.5916" ry="18"/>
<text text-anchor="middle" x="1369.6342" y="-373.8" font-family="Times,serif" font-size="14.00" fill="#000000">creat</text>
</g>
<!-- main&#45;&gt;creat -->
<g id="edge19" class="edge">
<title>main-&gt;creat</title>
<path fill="none" stroke="#3542b2" d="M1024.7992,-447.3866C1083.5811,-441.7909 1217.2028,-426.5959 1325.6342,-396 1329.1789,-394.9998 1332.8247,-393.8014 1336.4288,-392.5042"/>
<polygon fill="#3542b2" stroke="#3542b2" points="1337.6975,-395.7663 1345.7732,-388.9082 1335.1834,-389.2333 1337.6975,-395.7663"/>
</g>
<!-- rem -->
<g id="node21" class="node">
<title>rem</title>
<ellipse fill="#ccd1ff" stroke="#ccd1ff" cx="1085.6342" cy="-162" rx="27" ry="18"/>
<text text-anchor="middle" x="1085.6342" y="-157.8" font-family="Times,serif" font-size="14.00" fill="#000000">rem</text>
</g>
<!-- main&#45;&gt;rem -->
<g id="edge20" class="edge">
<title>main-&gt;rem</title>
<path fill="none" stroke="#3542b2" d="M1025.0795,-449.5787C1141.0153,-447.6643 1550.3162,-437.9595 1588.6342,-396 1614.0594,-368.1586 1575.9878,-257.4113 1514.6342,-216 1441.9438,-166.9367 1205.9782,-204.0251 1121.6342,-180 1119.5047,-179.3934 1117.3508,-178.6612 1115.2112,-177.8438"/>
<polygon fill="#3542b2" stroke="#3542b2" points="1116.6069,-174.6342 1106.0419,-173.8396 1113.8055,-181.0492 1116.6069,-174.6342"/>
</g>
<!-- oldfile -->
<g id="node22" class="node">
<title>oldfile</title>
<ellipse fill="#ccd1ff" stroke="#ccd1ff" cx="1543.6342" cy="-378" rx="36.4936" ry="18"/>
<text text-anchor="middle" x="1543.6342" y="-373.8" font-family="Times,serif" font-size="14.00" fill="#000000">oldfile</text>
</g>
<!-- main&#45;&gt;oldfile -->
<g id="edge21" class="edge">
<title>main-&gt;oldfile</title>
<path fill="none" stroke="#3542b2" d="M1024.8178,-447.8547C1119.1725,-440.9775 1407.6809,-418.6072 1498.6342,-396 1501.2983,-395.3378 1504.0143,-394.5521 1506.7255,-393.685"/>
<polygon fill="#3542b2" stroke="#3542b2" points="1508.1563,-396.8917 1516.4226,-390.2646 1505.8278,-390.2904 1508.1563,-396.8917"/>
</g>
<!-- malloc -->
<g id="node44" class="node">
<title>malloc</title>
<ellipse fill="#ccd1ff" stroke="#ccd1ff" cx="1720.6342" cy="-450" rx="37.1367" ry="18"/>
<text text-anchor="middle" x="1720.6342" y="-445.8" font-family="Times,serif" font-size="14.00" fill="#000000">malloc</text>
</g>
<!-- on_exit&#45;&gt;malloc -->
<g id="edge71" class="edge">
<title>on_exit-&gt;malloc</title>
<path fill="none" stroke="#29d820" d="M1548.5092,-510.75C1584.1016,-498.188 1641.7735,-477.8332 1680.4341,-464.1883"/>
<polygon fill="#29d820" stroke="#29d820" points="1682.0486,-467.3301 1690.3136,-460.7014 1679.7188,-460.7292 1682.0486,-467.3301"/>
</g>
<!-- sort&#45;&gt;newfile -->
<g id="edge24" class="edge">
<title>sort-&gt;newfile</title>
<path fill="none" stroke="#3542b2" d="M373.8896,-371.4441C388.1509,-367.846 406.332,-363.4319 422.6342,-360 511.8707,-341.2142 535.0862,-341.2397 624.6342,-324 637.9106,-321.444 652.2952,-318.5281 665.4726,-315.7983"/>
<polygon fill="#3542b2" stroke="#3542b2" points="666.1997,-319.2221 675.2757,-313.7562 664.7721,-312.3692 666.1997,-319.2221"/>
</g>
<!-- sort&#45;&gt;fclose -->
<g id="edge25" class="edge">
<title>sort-&gt;fclose</title>
<path fill="none" stroke="#3542b2" d="M350.9053,-359.8314C351.8678,-352.131 353.0124,-342.9743 354.0821,-334.4166"/>
<polygon fill="#3542b2" stroke="#3542b2" points="357.5651,-334.7702 355.3326,-324.4133 350.6192,-333.9019 357.5651,-334.7702"/>
</g>
<!-- sort&#45;&gt;setbuf -->
<g id="edge26" class="edge">
<title>sort-&gt;setbuf</title>
<path fill="none" stroke="#3542b2" d="M321.9876,-373.9397C273.8585,-366.3041 169.4545,-348.3562 83.6342,-324 79.8199,-322.9175 75.8782,-321.6792 71.964,-320.3701"/>
<polygon fill="#3542b2" stroke="#3542b2" points="72.9743,-317.0157 62.3795,-317.0184 70.6636,-323.6233 72.9743,-317.0157"/>
</g>
<!-- msort -->
<g id="node23" class="node">
<title>msort</title>
<ellipse fill="#b9d9ff" stroke="#b9d9ff" cx="272.6342" cy="-306" rx="33.0624" ry="18"/>
<text text-anchor="middle" x="272.6342" y="-301.8" font-family="Times,serif" font-size="14.00" fill="#000000">msort</text>
</g>
<!-- sort&#45;&gt;msort -->
<g id="edge22" class="edge">
<title>sort-&gt;msort</title>
<path fill="none" stroke="#3459b6" d="M332.887,-363.0816C322.4012,-353.1477 308.4251,-339.9072 296.5734,-328.6793"/>
<polygon fill="#3459b6" stroke="#3459b6" points="298.8166,-325.9831 289.15,-321.6465 294.0024,-331.0648 298.8166,-325.9831"/>
</g>
<!-- filbuf -->
<g id="node24" class="node">
<title>filbuf</title>
<ellipse fill="#c8d1ff" stroke="#c8d1ff" cx="102.6342" cy="-234" rx="32.4808" ry="18"/>
<text text-anchor="middle" x="102.6342" y="-229.8" font-family="Times,serif" font-size="14.00" fill="#000000">filbuf</text>
</g>
<!-- sort&#45;&gt;filbuf -->
<g id="edge23" class="edge">
<title>sort-&gt;filbuf</title>
<path fill="none" stroke="#3542b2" d="M321.7616,-375.4745C266.7934,-369.7386 144.3469,-353.8542 116.6342,-324 101.4053,-307.5943 98.7377,-281.8129 99.396,-262.041"/>
<polygon fill="#3542b2" stroke="#3542b2" points="102.8897,-262.251 100.0197,-252.0523 95.9033,-261.8147 102.8897,-262.251"/>
</g>
<!-- setfil -->
<g id="node25" class="node">
<title>setfil</title>
<ellipse fill="#ccd1ff" stroke="#ccd1ff" cx="780.6342" cy="-234" rx="30.19" ry="18"/>
<text text-anchor="middle" x="780.6342" y="-229.8" font-family="Times,serif" font-size="14.00" fill="#000000">setfil</text>
</g>
<!-- sort&#45;&gt;setfil -->
<g id="edge27" class="edge">
<title>sort-&gt;setfil</title>
<path fill="none" stroke="#3542b2" d="M369.7528,-366.7591C406.1194,-347.8455 483.3448,-309.6119 552.6342,-288 633.849,-262.6684 659.5132,-277.6303 740.6342,-252 743.0486,-251.2372 745.5106,-250.3688 747.9671,-249.4353"/>
<polygon fill="#3542b2" stroke="#3542b2" points="749.3847,-252.6368 757.3022,-245.5966 746.7225,-246.1628 749.3847,-252.6368"/>
</g>
<!-- merge&#45;&gt;unlink -->
<g id="edge36" class="edge">
<title>merge-&gt;unlink</title>
<path fill="none" stroke="#3542b2" d="M501.4341,-374.361C561.6658,-367.5967 688.9469,-351.2455 793.6342,-324 797.5404,-322.9834 801.5718,-321.7885 805.5715,-320.5061"/>
<polygon fill="#3542b2" stroke="#3542b2" points="807.0115,-323.7136 815.3592,-317.1893 804.7648,-317.084 807.0115,-323.7136"/>
</g>
<!-- merge&#45;&gt;fclose -->
<g id="edge38" class="edge">
<title>merge-&gt;fclose</title>
<path fill="none" stroke="#3542b2" d="M444.8384,-363.6028C428.3942,-352.7405 405.6464,-337.7145 387.5074,-325.7327"/>
<polygon fill="#3542b2" stroke="#3542b2" points="389.2939,-322.7182 379.0208,-320.1269 385.4357,-328.559 389.2939,-322.7182"/>
</g>
<!-- merge&#45;&gt;setbuf -->
<g id="edge41" class="edge">
<title>merge-&gt;setbuf</title>
<path fill="none" stroke="#3542b2" d="M434.4313,-370.2866C419.3639,-366.8435 401.1401,-362.9151 384.6342,-360 266.2848,-339.0984 234.9836,-344.9016 116.6342,-324 103.4968,-321.6798 89.2711,-318.7177 76.4148,-315.8693"/>
<polygon fill="#3542b2" stroke="#3542b2" points="76.9695,-312.4066 66.4448,-313.6237 75.4314,-319.2355 76.9695,-312.4066"/>
</g>
<!-- merge&#45;&gt;setfil -->
<g id="edge39" class="edge">
<title>merge-&gt;setfil</title>
<path fill="none" stroke="#3542b2" d="M501.7456,-376.2914C571.5204,-372.163 724.0597,-359.245 760.6342,-324 776.9497,-308.2776 781.3368,-282.4239 781.9987,-262.4507"/>
<polygon fill="#3542b2" stroke="#3542b2" points="785.4991,-262.3596 782.0422,-252.3446 778.4991,-262.3294 785.4991,-262.3596"/>
</g>
<!-- insert -->
<g id="node27" class="node">
<title>insert</title>
<ellipse fill="#ccd1ff" stroke="#ccd1ff" cx="535.6342" cy="-234" rx="32.4788" ry="18"/>
<text text-anchor="middle" x="535.6342" y="-229.8" font-family="Times,serif" font-size="14.00" fill="#000000">insert</text>
</g>
<!-- merge&#45;&gt;insert -->
<g id="edge33" class="edge">
<title>merge-&gt;insert</title>
<path fill="none" stroke="#3542b2" d="M466.4667,-359.7372C467.0042,-340.7973 469.8919,-310.8175 481.6342,-288 488.001,-275.6282 498.2226,-264.325 508.0685,-255.2934"/>
<polygon fill="#3542b2" stroke="#3542b2" points="510.5589,-257.7659 515.8035,-248.5602 505.9628,-252.4861 510.5589,-257.7659"/>
</g>
<!-- wline -->
<g id="node28" class="node">
<title>wline</title>
<ellipse fill="#d7ff3e" stroke="#d7ff3e" cx="190.6342" cy="-234" rx="32.4808" ry="18"/>
<text text-anchor="middle" x="190.6342" y="-229.8" font-family="Times,serif" font-size="14.00" fill="#000000">wline</text>
</g>
<!-- merge&#45;&gt;wline -->
<g id="edge35" class="edge">
<title>merge-&gt;wline</title>
<path fill="none" stroke="#3542b2" d="M434.147,-370.7612C369.9047,-356.4208 232.6218,-325.6362 230.6342,-324 211.7488,-308.4526 201.4791,-282.1752 196.0936,-262.0159"/>
<polygon fill="#3542b2" stroke="#3542b2" points="199.4535,-261.019 193.7027,-252.1208 192.6493,-262.6631 199.4535,-261.019"/>
</g>
<!-- cmpsave -->
<g id="node30" class="node">
<title>cmpsave</title>
<ellipse fill="#ccd1ff" stroke="#ccd1ff" cx="402.6342" cy="-234" rx="44.6434" ry="18"/>
<text text-anchor="middle" x="402.6342" y="-229.8" font-family="Times,serif" font-size="14.00" fill="#000000">cmpsave</text>
</g>
<!-- merge&#45;&gt;cmpsave -->
<g id="edge42" class="edge">
<title>merge-&gt;cmpsave</title>
<path fill="none" stroke="#3542b2" d="M458.7866,-360.3428C447.7508,-335.5122 427.5525,-290.066 414.6269,-260.9836"/>
<polygon fill="#3542b2" stroke="#3542b2" points="417.8059,-259.5183 410.5461,-251.8017 411.4092,-262.3613 417.8059,-259.5183"/>
</g>
<!-- rline -->
<g id="node31" class="node">
<title>rline</title>
<ellipse fill="#6fff82" stroke="#6fff82" cx="154.6342" cy="-306" rx="28.9696" ry="18"/>
<text text-anchor="middle" x="154.6342" y="-301.8" font-family="Times,serif" font-size="14.00" fill="#000000">rline</text>
</g>
<!-- merge&#45;&gt;rline -->
<g id="edge34" class="edge">
<title>merge-&gt;rline</title>
<path fill="none" stroke="#3542b2" d="M434.3501,-370.711C419.2656,-367.3572 401.0509,-363.3815 384.6342,-360 301.7373,-342.9252 278.6567,-348.4708 197.6342,-324 194.2787,-322.9865 190.8277,-321.8008 187.4096,-320.53"/>
<polygon fill="#3542b2" stroke="#3542b2" points="188.5568,-317.2199 177.9704,-316.7961 185.9818,-323.7291 188.5568,-317.2199"/>
</g>
<!-- fopen -->
<g id="node32" class="node">
<title>fopen</title>
<ellipse fill="#ccd1ff" stroke="#ccd1ff" cx="698.6342" cy="-234" rx="33.0469" ry="18"/>
<text text-anchor="middle" x="698.6342" y="-229.8" font-family="Times,serif" font-size="14.00" fill="#000000">fopen</text>
</g>
<!-- merge&#45;&gt;fopen -->
<g id="edge37" class="edge">
<title>merge-&gt;fopen</title>
<path fill="none" stroke="#3542b2" d="M478.7622,-361.073C493.9372,-341.0229 521.7165,-307.8471 552.6342,-288 593.7962,-261.5768 611.0147,-269.6452 656.6342,-252 658.7383,-251.1862 660.8932,-250.331 663.0616,-249.4538"/>
<polygon fill="#3542b2" stroke="#3542b2" points="664.6417,-252.5877 672.5399,-245.526 661.9618,-246.121 664.6417,-252.5877"/>
</g>
<!-- mul -->
<g id="node33" class="node">
<title>mul</title>
<ellipse fill="#ccd1ff" stroke="#ccd1ff" cx="588.6342" cy="-306" rx="27" ry="18"/>
<text text-anchor="middle" x="588.6342" y="-301.8" font-family="Times,serif" font-size="14.00" fill="#000000">mul</text>
</g>
<!-- merge&#45;&gt;mul -->
<g id="edge40" class="edge">
<title>merge-&gt;mul</title>
<path fill="none" stroke="#3542b2" d="M489.8686,-364.2879C509.7104,-352.578 538.3411,-335.6812 559.673,-323.0919"/>
<polygon fill="#3542b2" stroke="#3542b2" points="561.4883,-326.0847 568.3214,-317.9879 557.9305,-320.0562 561.4883,-326.0847"/>
</g>
<!-- term&#45;&gt;signal -->
<g id="edge51" class="edge">
<title>term-&gt;signal</title>
<path fill="none" stroke="#3542b2" d="M867.7397,-366.3293C872.8557,-363.9682 878.3511,-361.6937 883.6342,-360 972.0581,-331.6526 1080.2047,-316.7959 1139.4974,-310.2538"/>
<polygon fill="#3542b2" stroke="#3542b2" points="1140.0656,-313.713 1149.6343,-309.1642 1139.3175,-306.7531 1140.0656,-313.713"/>
</g>
<!-- term&#45;&gt;unlink -->
<g id="edge50" class="edge">
<title>term-&gt;unlink</title>
<path fill="none" stroke="#3542b2" d="M845.1295,-359.8314C844.9156,-352.131 844.6613,-342.9743 844.4236,-334.4166"/>
<polygon fill="#3542b2" stroke="#3542b2" points="847.9221,-334.3122 844.1457,-324.4133 840.9248,-334.5066 847.9221,-334.3122"/>
</g>
<!-- term&#45;&gt;setfil -->
<g id="edge52" class="edge">
<title>term-&gt;setfil</title>
<path fill="none" stroke="#3542b2" d="M868.9371,-366.9391C873.7921,-364.641 878.8786,-362.238 883.6342,-360 917.816,-343.9139 940.3523,-355.8717 960.6342,-324 969.2242,-310.5014 970.1851,-300.8367 960.6342,-288 943.8509,-265.4427 868.0773,-248.7823 820.3519,-240.3032"/>
<polygon fill="#3542b2" stroke="#3542b2" points="820.7841,-236.826 810.3338,-238.5698 819.5906,-243.7236 820.7841,-236.826"/>
</g>
<!-- exit -->
<g id="node39" class="node">
<title>exit</title>
<ellipse fill="#ccd1ff" stroke="#ccd1ff" cx="924.6342" cy="-306" rx="27" ry="18"/>
<text text-anchor="middle" x="924.6342" y="-301.8" font-family="Times,serif" font-size="14.00" fill="#000000">exit</text>
</g>
<!-- term&#45;&gt;exit -->
<g id="edge53" class="edge">
<title>term-&gt;exit</title>
<path fill="none" stroke="#3542b2" d="M862.0031,-363.0816C873.3059,-352.7802 888.5103,-338.923 901.1079,-327.4417"/>
<polygon fill="#3542b2" stroke="#3542b2" points="903.5233,-329.9759 908.5566,-320.653 898.8081,-324.8022 903.5233,-329.9759"/>
</g>
<!-- sigvec -->
<g id="node53" class="node">
<title>sigvec</title>
<ellipse fill="#ccd1ff" stroke="#ccd1ff" cx="1183.6342" cy="-234" rx="35.9135" ry="18"/>
<text text-anchor="middle" x="1183.6342" y="-229.8" font-family="Times,serif" font-size="14.00" fill="#000000">sigvec</text>
</g>
<!-- signal&#45;&gt;sigvec -->
<g id="edge72" class="edge">
<title>signal-&gt;sigvec</title>
<path fill="none" stroke="#3542b2" d="M1183.6342,-287.8314C1183.6342,-280.131 1183.6342,-270.9743 1183.6342,-262.4166"/>
<polygon fill="#3542b2" stroke="#3542b2" points="1187.1343,-262.4132 1183.6342,-252.4133 1180.1343,-262.4133 1187.1343,-262.4132"/>
</g>
<!-- newfile&#45;&gt;setfil -->
<g id="edge58" class="edge">
<title>newfile-&gt;setfil</title>
<path fill="none" stroke="#3542b2" d="M727.6376,-289.3008C736.7357,-279.8071 748.2704,-267.771 758.2539,-257.3534"/>
<polygon fill="#3542b2" stroke="#3542b2" points="760.8001,-259.755 765.1922,-250.1134 755.7462,-254.9116 760.8001,-259.755"/>
</g>
<!-- newfile&#45;&gt;fopen -->
<g id="edge57" class="edge">
<title>newfile-&gt;fopen</title>
<path fill="none" stroke="#344db4" d="M708.3538,-287.8314C706.9634,-280.131 705.3101,-270.9743 703.765,-262.4166"/>
<polygon fill="#344db4" stroke="#344db4" points="707.18,-261.6322 701.9588,-252.4133 700.2914,-262.8761 707.18,-261.6322"/>
</g>
<!-- fclose&#45;&gt;close -->
<g id="edge60" class="edge">
<title>fclose-&gt;close</title>
<path fill="none" stroke="#3542b2" d="M390.0781,-299.917C433.3016,-291.3812 511.8539,-274.3557 576.6342,-252 578.8815,-251.2245 581.1756,-250.3704 583.4715,-249.4685"/>
<polygon fill="#3542b2" stroke="#3542b2" points="584.9273,-252.6535 592.806,-245.57 582.2296,-246.1942 584.9273,-252.6535"/>
</g>
<!-- fflush -->
<g id="node43" class="node">
<title>fflush</title>
<ellipse fill="#ccd1ff" stroke="#ccd1ff" cx="364.6342" cy="-162" rx="33.6247" ry="18"/>
<text text-anchor="middle" x="364.6342" y="-157.8" font-family="Times,serif" font-size="14.00" fill="#000000">fflush</text>
</g>
<!-- fclose&#45;&gt;fflush -->
<g id="edge59" class="edge">
<title>fclose-&gt;fflush</title>
<path fill="none" stroke="#3547b3" d="M388.6797,-298.2721C411.8946,-290.6867 442.0431,-276.5793 456.6342,-252 464.8016,-238.2416 464.5845,-229.885 456.6342,-216 445.246,-196.1107 423.3699,-182.8319 403.8067,-174.4202"/>
<polygon fill="#3547b3" stroke="#3547b3" points="405.0294,-171.1397 394.4448,-170.6742 402.4288,-177.6388 405.0294,-171.1397"/>
</g>
<!-- doprnt -->
<g id="node58" class="node">
<title>doprnt</title>
<ellipse fill="#ccd1ff" stroke="#ccd1ff" cx="1453.6342" cy="-306" rx="36.4994" ry="18"/>
<text text-anchor="middle" x="1453.6342" y="-301.8" font-family="Times,serif" font-size="14.00" fill="#000000">doprnt</text>
</g>
<!-- sprintf&#45;&gt;doprnt -->
<g id="edge85" class="edge">
<title>sprintf-&gt;doprnt</title>
<path fill="none" stroke="#3542b2" d="M1453.6342,-359.8314C1453.6342,-352.131 1453.6342,-342.9743 1453.6342,-334.4166"/>
<polygon fill="#3542b2" stroke="#3542b2" points="1457.1343,-334.4132 1453.6342,-324.4133 1450.1343,-334.4133 1457.1343,-334.4132"/>
</g>
<!-- qsort -->
<g id="node26" class="node">
<title>qsort</title>
<ellipse fill="#8dffdc" stroke="#8dffdc" cx="271.6342" cy="-234" rx="30.1958" ry="18"/>
<text text-anchor="middle" x="271.6342" y="-229.8" font-family="Times,serif" font-size="14.00" fill="#000000">qsort</text>
</g>
<!-- msort&#45;&gt;qsort -->
<g id="edge28" class="edge">
<title>msort-&gt;qsort</title>
<path fill="none" stroke="#3542b2" d="M272.3819,-287.8314C272.2749,-280.131 272.1478,-270.9743 272.0289,-262.4166"/>
<polygon fill="#3542b2" stroke="#3542b2" points="275.5286,-262.3637 271.89,-252.4133 268.5293,-262.4609 275.5286,-262.3637"/>
</g>
<!-- msort&#45;&gt;insert -->
<g id="edge29" class="edge">
<title>msort-&gt;insert</title>
<path fill="none" stroke="#3542b2" d="M298.1397,-294.2743C303.5239,-292.0243 309.2164,-289.8091 314.6342,-288 331.7218,-282.2943 436.7013,-257.2942 495.6167,-243.399"/>
<polygon fill="#3542b2" stroke="#3542b2" points="496.4225,-246.805 505.3533,-241.1048 494.8171,-239.9916 496.4225,-246.805"/>
</g>
<!-- msort&#45;&gt;wline -->
<g id="edge30" class="edge">
<title>msort-&gt;wline</title>
<path fill="none" stroke="#3542b2" d="M254.8414,-290.3771C243.3733,-280.3075 228.2931,-267.0663 215.6294,-255.947"/>
<polygon fill="#3542b2" stroke="#3542b2" points="217.9343,-253.3131 208.1106,-249.3451 213.3157,-258.5732 217.9343,-253.3131"/>
</g>
<!-- div -->
<g id="node29" class="node">
<title>div</title>
<ellipse fill="#ccd1ff" stroke="#ccd1ff" cx="781.6342" cy="-162" rx="27" ry="18"/>
<text text-anchor="middle" x="781.6342" y="-157.8" font-family="Times,serif" font-size="14.00" fill="#000000">div</text>
</g>
<!-- msort&#45;&gt;div -->
<g id="edge31" class="edge">
<title>msort-&gt;div</title>
<path fill="none" stroke="#3542b2" d="M284.4352,-289.1605C301.3675,-265.541 332.3083,-224.4991 348.6342,-216 505.783,-134.1897 575.2214,-228.4573 745.6342,-180 747.764,-179.3944 749.9181,-178.6629 752.0579,-177.846"/>
<polygon fill="#3542b2" stroke="#3542b2" points="753.463,-181.0517 761.2275,-173.8431 750.6624,-174.6363 753.463,-181.0517"/>
</g>
<!-- msort&#45;&gt;cmpsave -->
<g id="edge32" class="edge">
<title>msort-&gt;cmpsave</title>
<path fill="none" stroke="#3542b2" d="M295.8756,-293.1278C315.6457,-282.1782 344.3537,-266.2784 367.0218,-253.7238"/>
<polygon fill="#3542b2" stroke="#3542b2" points="368.956,-256.6536 376.0082,-248.7467 365.5645,-250.53 368.956,-256.6536"/>
</g>
<!-- read -->
<g id="node38" class="node">
<title>read</title>
<ellipse fill="#b5dcff" stroke="#b5dcff" cx="102.6342" cy="-162" rx="27.8073" ry="18"/>
<text text-anchor="middle" x="102.6342" y="-157.8" font-family="Times,serif" font-size="14.00" fill="#000000">read</text>
</g>
<!-- filbuf&#45;&gt;read -->
<g id="edge49" class="edge">
<title>filbuf-&gt;read</title>
<path fill="none" stroke="#3542b2" d="M102.6342,-215.8314C102.6342,-208.131 102.6342,-198.9743 102.6342,-190.4166"/>
<polygon fill="#3542b2" stroke="#3542b2" points="106.1343,-190.4132 102.6342,-180.4133 99.1343,-190.4133 106.1343,-190.4132"/>
</g>
<!-- setfil&#45;&gt;rem -->
<g id="edge78" class="edge">
<title>setfil-&gt;rem</title>
<path fill="none" stroke="#3542b2" d="M810.771,-230.6024C861.2479,-224.33 965.6172,-208.8604 1049.6342,-180 1051.5177,-179.353 1053.428,-178.627 1055.3358,-177.8475"/>
<polygon fill="#3542b2" stroke="#3542b2" points="1057.0363,-180.9204 1064.7182,-173.6238 1054.1628,-174.5373 1057.0363,-180.9204"/>
</g>
<!-- setfil&#45;&gt;div -->
<g id="edge77" class="edge">
<title>setfil-&gt;div</title>
<path fill="none" stroke="#3542b2" d="M780.8866,-215.8314C780.9935,-208.131 781.1207,-198.9743 781.2395,-190.4166"/>
<polygon fill="#3542b2" stroke="#3542b2" points="784.7392,-190.4609 781.3785,-180.4133 777.7398,-190.3637 784.7392,-190.4609"/>
</g>
<!-- cmpa -->
<g id="node34" class="node">
<title>cmpa</title>
<ellipse fill="#ff0000" stroke="#ff0000" cx="484.6342" cy="-162" rx="31.9012" ry="18"/>
<text text-anchor="middle" x="484.6342" y="-157.8" font-family="Times,serif" font-size="14.00" fill="#000000">cmpa</text>
</g>
<!-- qsort&#45;&gt;cmpa -->
<g id="edge45" class="edge">
<title>qsort-&gt;cmpa</title>
<path fill="none" stroke="#3542b2" d="M296.6305,-223.3746C302.8053,-220.8606 309.4291,-218.2566 315.6342,-216 360.0276,-199.8557 411.8828,-183.6748 446.3275,-173.2951"/>
<polygon fill="#3542b2" stroke="#3542b2" points="447.4215,-176.6211 455.995,-170.3965 445.4111,-169.916 447.4215,-176.6211"/>
</g>
<!-- insert&#45;&gt;cmpa -->
<g id="edge43" class="edge">
<title>insert-&gt;cmpa</title>
<path fill="none" stroke="#3542b2" d="M523.5479,-216.937C517.26,-208.06 509.4509,-197.0354 502.4822,-187.1971"/>
<polygon fill="#3542b2" stroke="#3542b2" points="505.2701,-185.0777 496.6338,-178.9405 499.5579,-189.1239 505.2701,-185.0777"/>
</g>
<!-- getfreehdr -->
<g id="node47" class="node">
<title>getfreehdr</title>
<ellipse fill="#ccd1ff" stroke="#ccd1ff" cx="989.6342" cy="-162" rx="50.9211" ry="18"/>
<text text-anchor="middle" x="989.6342" y="-157.8" font-family="Times,serif" font-size="14.00" fill="#000000">getfreehdr</text>
</g>
<!-- insert&#45;&gt;getfreehdr -->
<g id="edge76" class="edge">
<title>insert-&gt;getfreehdr</title>
<path fill="none" stroke="#3542b2" d="M559.9349,-221.9847C565.3292,-219.7004 571.0929,-217.5447 576.6342,-216 610.0449,-206.6867 825.3523,-181.0022 931.1424,-168.7167"/>
<polygon fill="#3542b2" stroke="#3542b2" points="931.8052,-172.1633 941.3356,-167.535 930.9991,-165.2099 931.8052,-172.1633"/>
</g>
<!-- flsbuf -->
<g id="node35" class="node">
<title>flsbuf</title>
<ellipse fill="#ccd1ff" stroke="#ccd1ff" cx="207.6342" cy="-162" rx="33.6247" ry="18"/>
<text text-anchor="middle" x="207.6342" y="-157.8" font-family="Times,serif" font-size="14.00" fill="#000000">flsbuf</text>
</g>
<!-- wline&#45;&gt;flsbuf -->
<g id="edge44" class="edge">
<title>wline-&gt;flsbuf</title>
<path fill="none" stroke="#3542b2" d="M194.924,-215.8314C196.7904,-207.9266 199.0192,-198.4872 201.0853,-189.7365"/>
<polygon fill="#3542b2" stroke="#3542b2" points="204.513,-190.4501 203.4047,-179.9134 197.7003,-188.8415 204.513,-190.4501"/>
</g>
<!-- rline&#45;&gt;filbuf -->
<g id="edge46" class="edge">
<title>rline-&gt;filbuf</title>
<path fill="none" stroke="#3542b2" d="M142.5737,-289.3008C136.1691,-280.4329 128.1623,-269.3465 121.0026,-259.4332"/>
<polygon fill="#3542b2" stroke="#3542b2" points="123.6828,-257.1662 114.9905,-251.1086 118.008,-261.2647 123.6828,-257.1662"/>
</g>
<!-- endopen -->
<g id="node40" class="node">
<title>endopen</title>
<ellipse fill="#ccd1ff" stroke="#ccd1ff" cx="596.6342" cy="-162" rx="43.506" ry="18"/>
<text text-anchor="middle" x="596.6342" y="-157.8" font-family="Times,serif" font-size="14.00" fill="#000000">endopen</text>
</g>
<!-- fopen&#45;&gt;endopen -->
<g id="edge55" class="edge">
<title>fopen-&gt;endopen</title>
<path fill="none" stroke="#354ab3" d="M677.993,-219.4297C663.419,-209.1422 643.6446,-195.1838 627.2404,-183.6044"/>
<polygon fill="#354ab3" stroke="#354ab3" points="629.2027,-180.7054 619.0146,-177.7979 625.1659,-186.4242 629.2027,-180.7054"/>
</g>
<!-- findiop -->
<g id="node42" class="node">
<title>findiop</title>
<ellipse fill="#ccd1ff" stroke="#ccd1ff" cx="697.6342" cy="-162" rx="38.8652" ry="18"/>
<text text-anchor="middle" x="697.6342" y="-157.8" font-family="Times,serif" font-size="14.00" fill="#000000">findiop</text>
</g>
<!-- fopen&#45;&gt;findiop -->
<g id="edge56" class="edge">
<title>fopen-&gt;findiop</title>
<path fill="none" stroke="#3542b2" d="M698.3819,-215.8314C698.2749,-208.131 698.1478,-198.9743 698.0289,-190.4166"/>
<polygon fill="#3542b2" stroke="#3542b2" points="701.5286,-190.3637 697.89,-180.4133 694.5293,-190.4609 701.5286,-190.3637"/>
</g>
<!-- xflsbuf -->
<g id="node36" class="node">
<title>xflsbuf</title>
<ellipse fill="#ccd1ff" stroke="#ccd1ff" cx="286.6342" cy="-90" rx="38.2818" ry="18"/>
<text text-anchor="middle" x="286.6342" y="-85.8" font-family="Times,serif" font-size="14.00" fill="#000000">xflsbuf</text>
</g>
<!-- flsbuf&#45;&gt;xflsbuf -->
<g id="edge48" class="edge">
<title>flsbuf-&gt;xflsbuf</title>
<path fill="none" stroke="#3542b2" d="M224.776,-146.3771C235.4971,-136.606 249.4946,-123.8487 261.4623,-112.9415"/>
<polygon fill="#3542b2" stroke="#3542b2" points="263.9455,-115.4139 268.9788,-106.091 259.2303,-110.2402 263.9455,-115.4139"/>
</g>
<!-- write -->
<g id="node37" class="node">
<title>write</title>
<ellipse fill="#9cfffe" stroke="#9cfffe" cx="286.6342" cy="-18" rx="30.7539" ry="18"/>
<text text-anchor="middle" x="286.6342" y="-13.8" font-family="Times,serif" font-size="14.00" fill="#000000">write</text>
</g>
<!-- xflsbuf&#45;&gt;write -->
<g id="edge47" class="edge">
<title>xflsbuf-&gt;write</title>
<path fill="none" stroke="#3542b2" d="M286.6342,-71.8314C286.6342,-64.131 286.6342,-54.9743 286.6342,-46.4166"/>
<polygon fill="#3542b2" stroke="#3542b2" points="290.1343,-46.4132 286.6342,-36.4133 283.1343,-46.4133 290.1343,-46.4132"/>
</g>
<!-- open -->
<g id="node41" class="node">
<title>open</title>
<ellipse fill="#c8d1ff" stroke="#c8d1ff" cx="596.6342" cy="-90" rx="29.6185" ry="18"/>
<text text-anchor="middle" x="596.6342" y="-85.8" font-family="Times,serif" font-size="14.00" fill="#000000">open</text>
</g>
<!-- endopen&#45;&gt;open -->
<g id="edge54" class="edge">
<title>endopen-&gt;open</title>
<path fill="none" stroke="#3542b2" d="M596.6342,-143.8314C596.6342,-136.131 596.6342,-126.9743 596.6342,-118.4166"/>
<polygon fill="#3542b2" stroke="#3542b2" points="600.1343,-118.4132 596.6342,-108.4133 593.1343,-118.4133 600.1343,-118.4132"/>
</g>
<!-- fflush&#45;&gt;xflsbuf -->
<g id="edge61" class="edge">
<title>fflush-&gt;xflsbuf</title>
<path fill="none" stroke="#344db4" d="M347.7094,-146.3771C337.1241,-136.606 323.3037,-123.8487 311.4875,-112.9415"/>
<polygon fill="#344db4" stroke="#344db4" points="313.7882,-110.302 304.0661,-106.091 309.0402,-115.4456 313.7882,-110.302"/>
</g>
<!-- morecore -->
<g id="node45" class="node">
<title>morecore</title>
<ellipse fill="#ccd1ff" stroke="#ccd1ff" cx="1720.6342" cy="-378" rx="47.4907" ry="18"/>
<text text-anchor="middle" x="1720.6342" y="-373.8" font-family="Times,serif" font-size="14.00" fill="#000000">morecore</text>
</g>
<!-- malloc&#45;&gt;morecore -->
<g id="edge62" class="edge">
<title>malloc-&gt;morecore</title>
<path fill="none" stroke="#29d820" d="M1720.6342,-431.8314C1720.6342,-424.131 1720.6342,-414.9743 1720.6342,-406.4166"/>
<polygon fill="#29d820" stroke="#29d820" points="1724.1343,-406.4132 1720.6342,-396.4133 1717.1343,-406.4133 1724.1343,-406.4132"/>
</g>
<!-- demote -->
<g id="node46" class="node">
<title>demote</title>
<ellipse fill="#ccd1ff" stroke="#ccd1ff" cx="1825.6342" cy="-378" rx="39.4254" ry="18"/>
<text text-anchor="middle" x="1825.6342" y="-373.8" font-family="Times,serif" font-size="14.00" fill="#000000">demote</text>
</g>
<!-- malloc&#45;&gt;demote -->
<g id="edge63" class="edge">
<title>malloc-&gt;demote</title>
<path fill="none" stroke="#3542b2" d="M1742.1359,-435.256C1757.3614,-424.8156 1778.0061,-410.6593 1794.9578,-399.0352"/>
<polygon fill="#3542b2" stroke="#3542b2" points="1797.1697,-401.7624 1803.4376,-393.2205 1793.2109,-395.9893 1797.1697,-401.7624"/>
</g>
<!-- morecore&#45;&gt;sbrk -->
<g id="edge64" class="edge">
<title>morecore-&gt;sbrk</title>
<path fill="none" stroke="#3542b2" d="M1719.8196,-359.9622C1717.8296,-320.5266 1711.8079,-223.78 1697.6342,-144 1696.0926,-135.3226 1693.878,-125.9909 1691.6636,-117.5666"/>
<polygon fill="#3542b2" stroke="#3542b2" points="1695.0196,-116.5699 1689.0079,-107.8458 1688.2671,-118.4147 1695.0196,-116.5699"/>
</g>
<!-- morecore&#45;&gt;getfreehdr -->
<g id="edge65" class="edge">
<title>morecore-&gt;getfreehdr</title>
<path fill="none" stroke="#3542b2" d="M1716.2128,-359.9221C1706.6256,-325.0698 1680.3305,-249.1077 1626.6342,-216 1517.2784,-148.5742 1176.1012,-202.6062 1049.6342,-180 1045.2399,-179.2145 1040.7122,-178.2181 1036.2069,-177.0987"/>
<polygon fill="#3542b2" stroke="#3542b2" points="1037.0051,-173.6892 1026.4402,-174.4857 1035.1958,-180.4514 1037.0051,-173.6892"/>
</g>
<!-- free -->
<g id="node48" class="node">
<title>free</title>
<ellipse fill="#ccd1ff" stroke="#ccd1ff" cx="1317.6342" cy="-306" rx="27" ry="18"/>
<text text-anchor="middle" x="1317.6342" y="-301.8" font-family="Times,serif" font-size="14.00" fill="#000000">free</text>
</g>
<!-- morecore&#45;&gt;free -->
<g id="edge66" class="edge">
<title>morecore-&gt;free</title>
<path fill="none" stroke="#3542b2" d="M1676.9126,-370.7716C1616.5119,-360.7085 1504.1689,-341.7133 1408.6342,-324 1390.4068,-320.6204 1370.1727,-316.6408 1353.4217,-313.284"/>
<polygon fill="#3542b2" stroke="#3542b2" points="1353.985,-309.8273 1343.491,-311.2854 1352.6038,-316.6897 1353.985,-309.8273"/>
</g>
<!-- getpagesize -->
<g id="node49" class="node">
<title>getpagesize</title>
<ellipse fill="#ccd1ff" stroke="#ccd1ff" cx="1805.6342" cy="-306" rx="56.157" ry="18"/>
<text text-anchor="middle" x="1805.6342" y="-301.8" font-family="Times,serif" font-size="14.00" fill="#000000">getpagesize</text>
</g>
<!-- morecore&#45;&gt;getpagesize -->
<g id="edge67" class="edge">
<title>morecore-&gt;getpagesize</title>
<path fill="none" stroke="#3542b2" d="M1740.3486,-361.3008C1751.5326,-351.8272 1765.7055,-339.822 1777.986,-329.4197"/>
<polygon fill="#3542b2" stroke="#3542b2" points="1780.3641,-331.9922 1785.7323,-322.8581 1775.8396,-326.6509 1780.3641,-331.9922"/>
</g>
<!-- putfreehdr -->
<g id="node50" class="node">
<title>putfreehdr</title>
<ellipse fill="#ccd1ff" stroke="#ccd1ff" cx="1930.6342" cy="-306" rx="51.005" ry="18"/>
<text text-anchor="middle" x="1930.6342" y="-301.8" font-family="Times,serif" font-size="14.00" fill="#000000">putfreehdr</text>
</g>
<!-- morecore&#45;&gt;putfreehdr -->
<g id="edge68" class="edge">
<title>morecore-&gt;putfreehdr</title>
<path fill="none" stroke="#3542b2" d="M1756.2579,-365.7862C1791.3842,-353.7428 1845.2603,-335.271 1883.8271,-322.0482"/>
<polygon fill="#3542b2" stroke="#3542b2" points="1885.4509,-325.1915 1893.7752,-318.6374 1883.1806,-318.5699 1885.4509,-325.1915"/>
</g>
<!-- udiv -->
<g id="node51" class="node">
<title>udiv</title>
<ellipse fill="#ccd1ff" stroke="#ccd1ff" cx="1589.6342" cy="-234" rx="28.4127" ry="18"/>
<text text-anchor="middle" x="1589.6342" y="-229.8" font-family="Times,serif" font-size="14.00" fill="#000000">udiv</text>
</g>
<!-- morecore&#45;&gt;udiv -->
<g id="edge69" class="edge">
<title>morecore-&gt;udiv</title>
<path fill="none" stroke="#3542b2" d="M1703.9623,-360.6152C1693.9339,-350.0919 1680.9593,-336.3599 1669.6342,-324 1649.181,-301.678 1626.267,-275.8094 1610.2219,-257.5504"/>
<polygon fill="#3542b2" stroke="#3542b2" points="1612.5926,-254.9455 1603.3666,-249.7366 1607.3306,-259.562 1612.5926,-254.9455"/>
</g>
<!-- umul -->
<g id="node52" class="node">
<title>umul</title>
<ellipse fill="#ccd1ff" stroke="#ccd1ff" cx="2030.6342" cy="-306" rx="30.7789" ry="18"/>
<text text-anchor="middle" x="2030.6342" y="-301.8" font-family="Times,serif" font-size="14.00" fill="#000000">umul</text>
</g>
<!-- morecore&#45;&gt;umul -->
<g id="edge70" class="edge">
<title>morecore-&gt;umul</title>
<path fill="none" stroke="#3542b2" d="M1756.301,-365.9054C1763.3239,-363.7603 1770.6733,-361.6788 1777.6342,-360 1870.9675,-337.4904 1898.7763,-351.9268 1990.6342,-324 1992.9088,-323.3085 1995.2234,-322.5179 1997.5346,-321.6628"/>
<polygon fill="#3542b2" stroke="#3542b2" points="1998.9467,-324.8671 2006.904,-317.872 1996.3213,-318.3781 1998.9467,-324.8671"/>
</g>
<!-- getfreehdr&#45;&gt;sbrk -->
<g id="edge74" class="edge">
<title>getfreehdr-&gt;sbrk</title>
<path fill="none" stroke="#3542b2" d="M1026.7861,-149.5572C1034.2813,-147.4156 1042.1559,-145.4244 1049.6342,-144 1272.9114,-101.4731 1546.8276,-92.4235 1645.7531,-90.5093"/>
<polygon fill="#3542b2" stroke="#3542b2" points="1645.9237,-94.0069 1655.8589,-90.3273 1645.7975,-87.0081 1645.9237,-94.0069"/>
</g>
<!-- free&#45;&gt;insert -->
<g id="edge75" class="edge">
<title>free-&gt;insert</title>
<path fill="none" stroke="#3542b2" d="M1291.9025,-299.9104C1273.7638,-295.8639 1248.8443,-290.7977 1226.6342,-288 939.5711,-251.8402 858.0464,-319.2306 576.6342,-252 574.1863,-251.4152 571.7019,-250.6904 569.2292,-249.8704"/>
<polygon fill="#3542b2" stroke="#3542b2" points="570.445,-246.5884 559.8533,-246.3306 567.9725,-253.1372 570.445,-246.5884"/>
</g>
<!-- sigblock -->
<g id="node56" class="node">
<title>sigblock</title>
<ellipse fill="#ccd1ff" stroke="#ccd1ff" cx="1298.6342" cy="-162" rx="43.5214" ry="18"/>
<text text-anchor="middle" x="1298.6342" y="-157.8" font-family="Times,serif" font-size="14.00" fill="#000000">sigblock</text>
</g>
<!-- sigvec&#45;&gt;sigblock -->
<g id="edge79" class="edge">
<title>sigvec-&gt;sigblock</title>
<path fill="none" stroke="#3542b2" d="M1206.0804,-219.9468C1223.009,-209.348 1246.4927,-194.6451 1265.5687,-182.7019"/>
<polygon fill="#3542b2" stroke="#3542b2" points="1267.6381,-185.5357 1274.2567,-177.2625 1263.9235,-179.6026 1267.6381,-185.5357"/>
</g>
<!-- sigsetmask -->
<g id="node57" class="node">
<title>sigsetmask</title>
<ellipse fill="#ccd1ff" stroke="#ccd1ff" cx="1183.6342" cy="-162" rx="53.3264" ry="18"/>
<text text-anchor="middle" x="1183.6342" y="-157.8" font-family="Times,serif" font-size="14.00" fill="#000000">sigsetmask</text>
</g>
<!-- sigvec&#45;&gt;sigsetmask -->
<g id="edge80" class="edge">
<title>sigvec-&gt;sigsetmask</title>
<path fill="none" stroke="#3542b2" d="M1183.6342,-215.8314C1183.6342,-208.131 1183.6342,-198.9743 1183.6342,-190.4166"/>
<polygon fill="#3542b2" stroke="#3542b2" points="1187.1343,-190.4132 1183.6342,-180.4133 1180.1343,-190.4133 1187.1343,-190.4132"/>
</g>
<!-- moncontrol -->
<g id="node54" class="node">
<title>moncontrol</title>
<ellipse fill="#cad1ff" stroke="#cad1ff" cx="1625.6342" cy="-594" rx="55.6198" ry="18"/>
<text text-anchor="middle" x="1625.6342" y="-589.8" font-family="Times,serif" font-size="14.00" fill="#000000">moncontrol</text>
</g>
<!-- profil -->
<g id="node55" class="node">
<title>profil</title>
<ellipse fill="#ccd1ff" stroke="#ccd1ff" cx="1625.6342" cy="-522" rx="32.4808" ry="18"/>
<text text-anchor="middle" x="1625.6342" y="-517.8" font-family="Times,serif" font-size="14.00" fill="#000000">profil</text>
</g>
<!-- moncontrol&#45;&gt;profil -->
<g id="edge73" class="edge">
<title>moncontrol-&gt;profil</title>
<path fill="none" stroke="#3542b2" d="M1625.6342,-575.8314C1625.6342,-568.131 1625.6342,-558.9743 1625.6342,-550.4166"/>
<polygon fill="#3542b2" stroke="#3542b2" points="1629.1343,-550.4132 1625.6342,-540.4133 1622.1343,-550.4133 1629.1343,-550.4132"/>
</g>
<!-- doprnt&#45;&gt;udiv -->
<g id="edge82" class="edge">
<title>doprnt-&gt;udiv</title>
<path fill="none" stroke="#3542b2" d="M1478.5787,-292.7941C1501.0542,-280.8953 1534.1902,-263.3527 1558.4163,-250.5271"/>
<polygon fill="#3542b2" stroke="#3542b2" points="1560.3469,-253.4654 1567.5471,-245.6932 1557.0716,-247.2788 1560.3469,-253.4654"/>
</g>
<!-- urem -->
<g id="node59" class="node">
<title>urem</title>
<ellipse fill="#ccd1ff" stroke="#ccd1ff" cx="1474.6342" cy="-234" rx="30.7577" ry="18"/>
<text text-anchor="middle" x="1474.6342" y="-229.8" font-family="Times,serif" font-size="14.00" fill="#000000">urem</text>
</g>
<!-- doprnt&#45;&gt;urem -->
<g id="edge81" class="edge">
<title>doprnt-&gt;urem</title>
<path fill="none" stroke="#3542b2" d="M1458.9334,-287.8314C1461.239,-279.9266 1463.9921,-270.4872 1466.5444,-261.7365"/>
<polygon fill="#3542b2" stroke="#3542b2" points="1469.9694,-262.4934 1469.4095,-251.9134 1463.2494,-260.5334 1469.9694,-262.4934"/>
</g>
<!-- strlen -->
<g id="node60" class="node">
<title>strlen</title>
<ellipse fill="#ccd1ff" stroke="#ccd1ff" cx="1269.6342" cy="-234" rx="32.4788" ry="18"/>
<text text-anchor="middle" x="1269.6342" y="-229.8" font-family="Times,serif" font-size="14.00" fill="#000000">strlen</text>
</g>
<!-- doprnt&#45;&gt;strlen -->
<g id="edge83" class="edge">
<title>doprnt-&gt;strlen</title>
<path fill="none" stroke="#3542b2" d="M1424.1537,-295.3822C1395.1165,-284.8034 1349.5795,-267.8894 1310.6342,-252 1308.5873,-251.1649 1306.4893,-250.2932 1304.3767,-249.4034"/>
<polygon fill="#3542b2" stroke="#3542b2" points="1305.7051,-246.1648 1295.1349,-245.443 1302.9479,-252.599 1305.7051,-246.1648"/>
</g>
<!-- localeconv -->
<g id="node61" class="node">
<title>localeconv</title>
<ellipse fill="#ccd1ff" stroke="#ccd1ff" cx="1372.6342" cy="-234" rx="52.7295" ry="18"/>
<text text-anchor="middle" x="1372.6342" y="-229.8" font-family="Times,serif" font-size="14.00" fill="#000000">localeconv</text>
</g>
<!-- doprnt&#45;&gt;localeconv -->
<g id="edge84" class="edge">
<title>doprnt-&gt;localeconv</title>
<path fill="none" stroke="#3542b2" d="M1435.6577,-290.0209C1424.9524,-280.5051 1411.1687,-268.2528 1399.2229,-257.6344"/>
<polygon fill="#3542b2" stroke="#3542b2" points="1401.4885,-254.9654 1391.6891,-250.9377 1396.8379,-260.1973 1401.4885,-254.9654"/>
</g>
</g>
</svg>