digraph G {
	a0->a1;
	a1->a2;
	a2->a3;
	b0->b1;
	b1->b2;
	b2->b3;
	start->a0;
	start->b0;
	a1->b3;
	b2->a3;
	a3->a0;
	a3->end;
	b3->end;
	subgraph cluster_0 {
	color=lightgrey;
	label="process #1";
	style=filled;
	a0 [ color=white, style=filled ];
	a1 [ color=white, style=filled ];
	a2 [ color=white, style=filled ];
	a3 [ color=white, style=filled ];

}
;
	subgraph cluster_1 {
	color=blue;
	label="process #2";
	b0 [ style=filled ];
	b1 [ style=filled ];
	b2 [ style=filled ];
	b3 [ style=filled ];

}
;
	end [ shape=Msquare ];
	start [ shape=Mdiamond ];

}
